Año;Importación Masa (kg);Importación Valor CIF (USD);Exportación Masa (kg);Exportación Valor FOB (USD)

28041000000
2000;444.57;4647.79;108.0;843.0
2001;126.52999999999999;5491.9800000000005;74.19;1935.76
2002;29.95;2309.1299999999997;1054.1100000000001;4203.950000000001
2003;711.47;3484.02;3099.81;10731.390000000001
2004;123.92;1708.16;4124.03;13582.74
2005;99.07;6392.9400000000005;3955.88;15624.7
2006;62.05;3173.05;7457.07;49917.990000000005
2007;43.61;2939.7;9564.24;76312.37
2008;177.42999999999998;4111.7;2467.04;18964.4
2009;135.05;2219.15;245.2;3198.28
2010;881.31;19712.039999999997;387.5;7064.63
2011;1124.19;6241.5199999999995;10.08;844.13
2012;411.51;2973.94;17.01;1135.78
2013;2028.67;13026.24;6.0;594.4
2014;291.89;12069.42;63.3;2157.0

28044000000
2000;1267942.4000000001;123310.66;3874145.2;289197.77
2001;831362.96;88949.65000000001;2478786.6999999997;175031.48
2002;3777.2900000000004;34798.280000000006;4047817.3200000003;188715.15000000002
2003;4215.28;26815.820000000003;5504735.19;255606.87
2004;164272.97;69374.2;3858038.59;214638.82
2005;433513.57;70952.07;5543807.53;302813.76
2006;2175830.1900000004;251782.78999999998;2798607.9;211498.84
2007;2774395.91;446989.97;5485010.75;364719.01
2008;1728017.81;335890.61000000004;738386.1499999999;170279.49
2009;430259.72;185038.94;681928.6;227862.69
2010;3142501.56;708252.2000000001;1485665.2;321082.05
2011;1303338.24;270731.86;1507431.99;304432.18
2012;2922350.76;801125.4200000002;4146777.4200000004;575873.1399999999
2013;7908843.18;2219597.7;7057113.279999999;991231.33
2014;8449.65;46433.49000000001;3216502.0;493205.4
